{
    "editor": [
        {
            "icon": "",
            "key": "preGameScreen",
            "header": "PreGameScreen",
            "disabled": false,
            "fields": [
                {
                    "key": "titleText",
                    "header": "Title Text",
                    "type": "text"
                },
                {
                    "key": "titleTextSize",
                    "header": "Title text size",
                    "type": "range",
                    "options": {
                        "minValue": 20,
                        "maxValue": 40,
                        "stepSize": "1"
                    }
                },
                {
                    "key": "playButtonText",
                    "header": "Play Button Text",
                    "type": "text"
                },
                {
                    "key": "buttonTextColor",
                    "header": "Play Button Text Color",
                    "type": "color"
                },
                {
                    "key": "backgroundImage",
                    "header": "Background Image",
                    "type": "image"
                },
                {
                    "key": "titleImage",
                    "header": "Header Image",
                    "type": "image"
                },
                {
                    "key": "titleImageSize",
                    "header": "Header image size",
                    "type": "range",
                    "options": {
                        "minValue": 150,
                        "maxValue": 400,
                        "stepSize": "1"
                    }
                },
                {
                    "key": "cardColor",
                    "header": "Card Color",
                    "type": "color"
                },
                {
                    "key": "buttonColor",
                    "header": "Play Button Color",
                    "type": "color"
                },
                {
                    "key": "fontFamily",
                    "header": "Google Font Name",
                    "type": "text"
                },
                {
                    "key": "showLeaderboardButton",
                    "header": "Show leaderboard button",
                    "type": "boolean"
                },
                {
                    "key": "leaderboardButtonText",
                    "header": "Leaderboard button text",
                    "type": "text"
                },
                {
                    "key": "showSoundButton",
                    "header": "Show sound button",
                    "type": "boolean"
                },
                {
                    "key": "soundEnabledIcon",
                    "type": "image",
                    "header": "Sound enabled icon"
                },
                {
                    "key": "soundDisabledIcon",
                    "type": "image",
                    "header": "Sound disabled icon"
                }
            ]
        },
        {
            "icon": "",
            "key": "settings",
            "header": "Game Settings",
            "disabled": false,
            "fields": [
                {
                    "key": "instructions1",
                    "type": "text",
                    "header": "Instructions Text 1"
                },
                {
                    "key": "instructions2",
                    "type": "text",
                    "header": "Instructions Text 2"
                },
                {
                    "key": "instructions3",
                    "type": "text",
                    "header": "Instructions Text 3"
                },
                {
                    "key": "textColor",
                    "header": "In Game Text Color",
                    "type": "color"
                },
                {
                    "key": "rows",
                    "header": "Rows",
                    "type": "range",
                    "options": {
                        "minValue": 5,
                        "maxValue": 9,
                        "stepSize": 1
                    }
                },
                {
                    "key": "columns",
                    "header": "Columns",
                    "type": "range",
                    "options": {
                        "minValue": 5,
                        "maxValue": 9,
                        "stepSize": 1
                    }
                },
                {
                    "key": "objects",
                    "header": "Objects",
                    "type": "array",
                    "fields": [
                        {
                            "key": "o1",
                            "header": "Object 1",
                            "type": "image"
                        },
                        {
                            "key": "o2",
                            "header": "Object 2",
                            "type": "image"
                        },
                        {
                            "key": "o3",
                            "header": "Object 3",
                            "type": "image"
                        },
                        {
                            "key": "o4",
                            "header": "Object 4",
                            "type": "image"
                        }
                    ]
                },
                {
                    "key": "specialGemChance",
                    "header": "Special Gem chance (in percents)",
                    "type": "range",
                    "options": {
                        "minValue": 0,
                        "maxValue": 50,
                        "stepSize": 1
                    }
                },
                {
                    "key": "showGrid",
                    "header": "Display game board",
                    "type": "boolean"
                },
                {
                    "key": "gridColor",
                    "header": "Game board color",
                    "type": "color"
                },
                {
                    "key": "onboardTextColor",
                    "header": "On board text color",
                    "type": "color"
                },
                {
                    "key": "correctMovePoints",
                    "header": "Points to increase on correct move",
                    "type": "range",
                    "options": {
                        "minValue": 1,
                        "maxValue": 10,
                        "stepSize": 1
                    }
                },
                {
                    "key": "wrongMoves",
                    "header": "Reduce points on wrong move",
                    "type": "boolean"
                },
                {
                    "key": "wrongMovePoints",
                    "header": "Points to reduce on wrong move",
                    "type": "range",
                    "options": {
                        "minValue": 1,
                        "maxValue": 10,
                        "stepSize": 1
                    }
                },
                {
                    "key": "timeWrongMoves",
                    "header": "Reduce time on wrong move",
                    "type": "boolean"
                },
                {
                    "key": "wrongMoveTime",
                    "header": "Time to reduce on wrong move",
                    "type": "range",
                    "options": {
                        "minValue": 1,
                        "maxValue": 10,
                        "step": 1
                    }
                },
                {
                    "key": "scoreToWin",
                    "header": "Score required to win",
                    "type": "range",
                    "options": {
                        "minValue": 10,
                        "maxValue": 5000,
                        "step": 1
                    }
                },
                {
                    "key": "fixedLegth",
                    "header": "Fixed length game",
                    "type": "boolean"
                },
                {
                    "key": "gameLength",
                    "header": "Game length",
                    "type": "range",
                    "options": {
                        "minValue": 5,
                        "maxValue": 80,
                        "stepSize": 1
                    }
                },
                {
                    "key": "timeUpText",
                    "header": "Time up text",
                    "type": "text"
                },
                {
                    "key": "messageTextColor",
                    "header": "End game message text color",
                    "type": "color"
                },
                {
                    "key": "winText",
                    "header": "Win text",
                    "type": "text"
                },
                {
                    "key": "winSound",
                    "header": "Win sound effect",
                    "type": "sound"
                },
                {
                    "key": "theme",
                    "header": "Background Music",
                    "type": "sound"
                },
                {
                    "key": "incorrectSound",
                    "header": "Incorrect move sound",
                    "type": "sound"
                },
                {
                    "key": "correctSound",
                    "header": "Correct move sound",
                    "type": "sound"
                },
                {
                    "key": "lose",
                    "header": "Lose sound effect",
                    "type": "sound"
                },
                {
                    "key": "volume",
                    "header": "Background music volume",
                    "type": "range",
                    "options": {
                        "minValue": 0,
                        "maxValue": 1,
                        "stepSize": "0.1"
                    }
                },
                {
                    "key": "sfxVolume",
                    "header": "Sound effects volume",
                    "type": "range",
                    "options": {
                        "minValue": 0,
                        "maxValue": 1,
                        "stepSize": "0.1"
                    }
                }
            ]
        },
        {
            "icon": "",
            "key": "postGameScreen",
            "header": "Post Game Screen",
            "disabled": false,
            "fields": [
                {
                    "key": "scoreText",
                    "header": "Text before score",
                    "type": "text"
                },
                {
                    "key": "textColor",
                    "header": "Text Color",
                    "type": "color"
                },
                {
                    "key": "buttonTextColor",
                    "header": "Button text color",
                    "type": "color"
                },
                {
                    "key": "cardColor",
                    "header": "Card Background Color",
                    "type": "color"
                },
                {
                    "key": "playButtonText",
                    "header": "Play again button text",
                    "type": "text"
                },
                {
                    "key": "buttonColor",
                    "header": "Buttons color",
                    "type": "color"
                },
                {
                    "key": "buttonTextColor",
                    "header": "Buttons text color",
                    "type": "color"
                },
                {
                    "key": "showText",
                    "header": "Show custom text",
                    "type": "boolean"
                },
                {
                    "key": "customText",
                    "header": "Custom text",
                    "type": "text"
                },
                {
                    "key": "submitName",
                    "header": "Show name field",
                    "type": "boolean"
                },
                {
                    "key": "submitEmail",
                    "header": "Show email field",
                    "type": "boolean"
                },
                {
                    "key": "submitScoreText",
                    "header": "Submit score button text",
                    "type": "text"
                },
                {
                    "key": "showLeadeboardButtonPostGameScreen",
                    "header": "Show Leadeboard Button",
                    "type": "boolean"
                },
                {
                    "key": "leaderboardButtonText",
                    "type": "text",
                    "header": "Leadeboard button text"
                },
                {
                    "key": "showCTA",
                    "header": "Show CTA Button",
                    "type": "boolean"
                },
                {
                    "key": "ctaText",
                    "header": "CTA text",
                    "type": "text"
                },
                {
                    "key": "ctaButtonText",
                    "header": "CTA button text",
                    "type": "text"
                },
                {
                    "key": "ctaUrl",
                    "header": "CTA Link",
                    "type": "text"
                }
            ]
        }
    ],
    "config": {
        "preGameScreen": {
            "titleText": "FAANG Stock Up",
            "titleTextSize": 40,
            "playButtonText": "Start",
            "cardColor": "#ffffff",
            "buttonColor": "#000000",
            "buttonTextColor": "#ffffff",
            "backgroundImage": "http://playcent.com/protected/asset/803b441948f54842bd02fb815ef8906f",
            "titleImage": "http://playcent.com/protected/asset/3cc52b3901b7428e896790bd15ab522d",
            "titleImageSize": 200,
            "fontFamily": "Balsamiq Sans",
            "showLeaderboardButton": false,
            "leaderboardButtonText": "Leaderboard",
            "showSoundButton": true,
            "soundEnabledIcon": "http://playcent.com/protected/asset/sound_on.png",
            "soundDisabledIcon": "http://playcent.com/protected/asset/sound_off.png"
        },
        "settings": {
            "instructions1": "Swipe along 2 items to swap them",
            "instructions2": "Score as much as possible!",
            "instructions3": "Have fun!",
            "textColor": "#e9e4e4",
            "rows": 7,
            "columns": 7,
            "correctMovePoints": 5,
            "wrongMoves": true,
            "wrongMovePoints": 5,
            "timeWrongMoves": true,
            "wrongMoveTime": 5,
            "scoreToWin": 3084,
            "fixedLength": true,
            "gameLength": 80,
            "timeUpText": "Time Up!!!",
            "messageTextColor": "#000000",
            "winText": "Congratulations!",
            "loseText": "Maybe next time.",
            "objects": {
                "o1": "http://playcent.com/protected/asset/100b8646e9a44059bc105e9557beb73d",
                "o2": "http://playcent.com/protected/asset/19c5db91895242caa9bc491832789556",
                "o3": "http://playcent.com/protected/asset/2c3c2234eb1a4565bceef17fb2467f9a",
                "o4": "http://playcent.com/protected/asset/33514f3d15aa40dca289a89d730b423f"
            },
            "specialGemChance": 17,
            "showGrid": true,
            "gridColor": "#f3decd",
            "onboardTextColor": "#ffffff",
            "theme": "http://playcent.com/protected/asset/theme.ogg",
            "winSound": "http://playcent.com/protected/asset/win.ogg",
            "loseSound": "http://playcent.com/protected/asset/lose.ogg",
            "incorrectSound": "http://playcent.com/protected/asset/incorrect.ogg",
            "correctSound": "http://playcent.com/protected/asset/correct.ogg",
            "volume": 0.3,
            "sfxVolume": 0.4,
            "fixedLegth": true
        },
        "postGameScreen": {
            "scoreText": "Your score is",
            "playButtonText": "Play Again",
            "buttonColor": "#000000",
            "cardColor": "#ffffff",
            "textColor": "#000000",
            "buttonTextColor": "#ffffff",
            "submitScoreText": "Submit ",
            "leaderboardButtonText": "Leaderboard",
            "showText": false,
            "customText": "Hello world",
            "submitName": true,
            "submitEmail": false,
            "showCTA": true,
            "ctaText": "Check out our page for more",
            "ctaButtonText": "Go to Playcent",
            "ctaUrl": "http://playcent.com/browser/#/home",
            "showLeadeboardButtonPostGameScreen": true
        }
    }
}